Statistical Computing with R
…
[1] "tbl_df"     "tbl"        "data.frame"

# Convert to tibble
flights <- as_tibble(flights)

# Check the class after conversion
class(flights)

[1] "tbl_df"     "tbl"        "data.frame"

flights

# A tibble: 336,776 × 19
    year month   day dep_time sched_dep_time dep_delay arr_time sched_arr_time
   <int> <int> <int>    <int>          <int>     <dbl>    <int>          <int>
 1  2013     1     1      517            515         2      830            819
 2  2013     1     1      533            529         4      850            830
 3  2013     1     1      542            540         2      923            850
 4  2013     1     1      544            545        -1     1004           1022
 5  2013     1     1      554            600        -6      812            837
 6  2013     1     1      554            558        -4      740            728
 7  2013     1     1      555            600        -5      913            854
 8  2013     1     1      557            600        -3      709            723
 9  2013     1     1      557            600        -3      838            846
10  2013     1     1      558            600        -2      753            745
# ℹ 336,766 more rows
# ℹ 11 more variables: arr_delay <dbl>, carrier <chr>, flight <int>,
#   tailnum <chr>, origin <chr>, dest <chr>, air_time <dbl>, distance <dbl>,
#   hour <dbl>, minute <dbl>, time_hour <dttm>
…
3.

Carrier “OO” has only one observation hence the standard deviation is “NA”, and also the rest are “0” because there is one unique distance between the values, so hence the standard deviation is 0.

4.

dep_delay_df <- flights |>
  group_by(month, carrier) |>
  summarise(avg_dep_delay = mean(dep_delay, na.rm = TRUE))

dep_delay_df

# A tibble: 185 × 3
# Groups:   month [12]
   month carrier avg_dep_delay
   <int> <chr>           <dbl>
 1     1 9E              16.9 
 2     1 AA               6.93
 3     1 AS               7.35
 4     1 B6               9.49
 5     1 DL               3.85
 6     1 EV              24.2 
 7     1 F9              10   
 8     1 FL               1.97
 9     1 HA              54.4 
10     1 MQ               6.49
# ℹ 175 more rows
…
